NBA Draft-2018-2019_Project1
…
TotalPTS_Over1000 <- filter(nba_joined_2019_2018, (Total_PTS.x > 
    1000 & Total_PTS.y > 1000))

TotalPTS_Over1000 %>% pivot_longer(c(Per_Game_AST.x, Per_Game_MP.x, 
    Per_Game_PTS.x))

## # A tibble: 24 x 44
##     Rk.x Year.x    Pk Tm.x  Player.x      College.x   Yrs.x Total_G.x Total_MP.x
##    <int>  <int> <int> <fct> <fct>         <fct>       <int>     <int>      <int>
##  1     1   2019     1 NOP   Zion William… Duke            2        65       2007
##  2     1   2019     1 NOP   Zion William… Duke            2        65       2007
##  3     1   2019     1 NOP   Zion William… Duke            2        65       2007
##  4     2   2019     2 MEM   Ja Morant     Murray Sta…     2        99       3083
##  5     2   2019     2 MEM   Ja Morant     Murray Sta…     2        99       3083
##  6     2   2019     2 MEM   Ja Morant     Murray Sta…     2        99       3083
##  7     3   2019     3 NYK   RJ Barrett    Duke            2       100       3192
##  8     3   2019     3 NYK   RJ Barrett    Duke            2       100       3192
##  9     3   2019     3 NYK   RJ Barrett    Duke            2       100       3192
## 10     4   2019     4 LAL   De'Andre Hun… Virginia        2        82       2617
## # … with 14 more rows, and 35 more variables: Total_PTS.x <int>,
## #   Total_TRB.x <int>, Total_AST.x <int>, FG..x <dbl>, X3P..x <dbl>,
## #   FT..x <dbl>, Per_Game_TRB.x <dbl>, WS.x <dbl>, WS.48.x <dbl>, BPM.x <dbl>,
## #   VORP.x <dbl>, Rk.y <int>, Year.y <int>, Tm.y <fct>, Player.y <fct>,
## #   College.y <fct>, Yrs.y <int>, Total_G.y <int>, Total_MP.y <int>,
## #   Total_PTS.y <int>, Total_TRB.y <int>, Total_AST.y <int>, FG..y <dbl>,
## #   X3P..y <dbl>, FT..y <dbl>, Per_Game_MP.y <dbl>, Per_Game_PTS.y <dbl>,
## #   Per_Game_TRB.y <dbl>, Per_Game_AST.y <dbl>, WS.y <dbl>, WS.48.y <dbl>,
## #   BPM.y <dbl>, VORP.y <dbl>, name <chr>, value <dbl>

pivot_totalPTS_Over1000 <- TotalPTS_Over1000 %>% pivot_longer(c(Per_Game_AST.x, 
    Per_Game_MP.x, Per_Game_PTS.x))

pivot_totalPTS_Over1000 %>% pivot_wider(names_from = name, values_from = value)

## # A tibble: 8 x 45
##    Rk.x Year.x    Pk Tm.x  Player.x       College.x   Yrs.x Total_G.x Total_MP.x
##   <int>  <int> <int> <fct> <fct>          <fct>       <int>     <int>      <int>
## 1     1   2019     1 NOP   Zion Williams… Duke            2        65       2007
## 2     2   2019     2 MEM   Ja Morant      Murray Sta…     2        99       3083
## 3     3   2019     3 NYK   RJ Barrett     Duke            2       100       3192
## 4     4   2019     4 LAL   De'Andre Hunt… Virginia        2        82       2617
## 5     5   2019     5 CLE   Darius Garland Vanderbilt      2        93       2947
## 6     7   2019     7 CHI   Coby White     UNC             2       107       3010
## 7     9   2019     9 WAS   Rui Hachimura  Gonzaga         2        83       2530
## 8    12   2019    12 CHO   P.J. Washingt… Kentucky        2        96       2887
## # … with 36 more variables: Total_PTS.x <int>, Total_TRB.x <int>,
## #   Total_AST.x <int>, FG..x <dbl>, X3P..x <dbl>, FT..x <dbl>,
## #   Per_Game_TRB.x <dbl>, WS.x <dbl>, WS.48.x <dbl>, BPM.x <dbl>, VORP.x <dbl>,
## #   Rk.y <int>, Year.y <int>, Tm.y <fct>, Player.y <fct>, College.y <fct>,
## #   Yrs.y <int>, Total_G.y <int>, Total_MP.y <int>, Total_PTS.y <int>,
## #   Total_TRB.y <int>, Total_AST.y <int>, FG..y <dbl>, X3P..y <dbl>,
## #   FT..y <dbl>, Per_Game_MP.y <dbl>, Per_Game_PTS.y <dbl>,
## #   Per_Game_TRB.y <dbl>, Per_Game_AST.y <dbl>, WS.y <dbl>, WS.48.y <dbl>,
## #   BPM.y <dbl>, VORP.y <dbl>, Per_Game_AST.x <dbl>, Per_Game_MP.x <dbl>,
## #   Per_Game_PTS.x <dbl>

arrange(TotalPTS_Over1000, Total_PTS.x)

##   Rk.x Year.x Pk Tm.x        Player.x College.x Yrs.x Total_G.x Total_MP.x
## 1    4   2019  4  LAL De'Andre Hunter  Virginia     2        82       2617
## 2    9   2019  9  WAS   Rui Hachimura   Gonzaga     2        83       2530
##   Total_PTS.x Total_TRB.x Total_AST.x FG..x X3P..x FT..x Per_Game_MP.x
## 1        1096         384         153 0.435  0.357 0.799          31.9
## 2        1117         498         141 0.469  0.315 0.806          30.5
##   Per_Game_PTS.x Per_Game_TRB.x Per_Game_AST.x WS.x WS.48.x BPM.x VORP.x Rk.y
## 1           13.4            4.7            1.9  2.0   0.037  -3.1   -0.7    4
## 2           13.5            6.0            1.7  3.1   0.060  -3.1   -0.7    9
##   Year.y Tm.y          Player.y      College.y Yrs.y Total_G.y Total_MP.y
## 1   2018  MEM Jaren Jackson Jr. Michigan State     2       115       3137
## 2   2018  NYK        Kevin Knox       Kentucky     3       172       3752
##   Total_PTS.y Total_TRB.y Total_AST.y FG..y X3P..y FT..y Per_Game_MP.y
## 1        1788         534         142 0.485  0.384 0.757          27.3
## 2        1528         572         160 0.369  0.344 0.703          21.8
##   Per_Game_PTS.y Per_Game_TRB.y Per_Game_AST.y WS.y WS.48.y BPM.y VORP.y
## 1           15.5            4.6            1.2  6.8   0.104   0.1    1.7
## 2            8.9            3.3            0.9 -0.7  -0.009  -4.8   -2.7
##  [ reached 'max' / getOption("max.print") -- omitted 6 rows ]
…
by_TotalG <- group_by(nba_joined_2019_2018, Total_G.x)
summarise(by_TotalG, PTSPERGAME = mean(Per_Game_PTS.x, na.rm = TRUE))

## # A tibble: 42 x 2
##    Total_G.x PTSPERGAME
##        <int>      <dbl>
##  1         4        3.8
##  2         7        0.1
##  3        13        1.5
##  4        16        4.1
##  5        17        3.8
##  6        19        0.9
##  7        21        1.7
##  8        22        3.3
##  9        25        3  
## 10        27        5.6
## # … with 32 more rows
…
